{
  "data": [
    {
      "os": "All",
      "schema": 1605987696433,
      "vendor": "0x8086",
      "details": {
        "bug": "https://bugzilla.mozilla.org/show_bug.cgi?id=1678942",
        "name": "sandybridge from WebRender in 83 on Windows"
      },
      "devices": [
        "0x0102",
        "0x0106",
        "0x010a",
        "0x0112",
        "0x0116",
        "0x0122",
        "0x0126"
      ],
      "enabled": true,
      "feature": "WEBRENDER",
      "hardware": "",
      "versionRange": {
        "maxVersion": "83.*",
        "minVersion": "83.0"
      },
      "driverVersion": "",
      "featureStatus": "BLOCKED_DEVICE",
      "driverVersionMax": "",
      "driverVersionComparator": "",
      "id": "6359e124-61ae-466f-9066-8f58f783b1ba",
      "last_modified": 1606146402211
    },
    {
      "os": "Darwin 20",
      "schema": 1605878544498,
      "vendor": "0x8086",
      "details": {
        "bug": "https://bugzilla.mozilla.org/show_bug.cgi?id=1678448",
        "name": "sandybridge from WebRender in 83 on macOS"
      },
      "devices": [
        "0x0102",
        "0x0106",
        "0x010a",
        "0x0112",
        "0x0116",
        "0x0122",
        "0x0126"
      ],
      "enabled": true,
      "feature": "WEBRENDER",
      "hardware": "",
      "versionRange": {
        "maxVersion": "83.*",
        "minVersion": "83.0"
      },
      "driverVersion": "",
      "featureStatus": "BLOCKED_DEVICE",
      "driverVersionMax": "",
      "driverVersionComparator": "",
      "id": "f138fcc2-3477-4b1e-a0d3-97c7a99246cf",
      "last_modified": 1605895309599
    },
    {
      "os": "Darwin 19",
      "schema": 1605885821224,
      "vendor": "0x8086",
      "details": {
        "bug": "https://bugzilla.mozilla.org/show_bug.cgi?id=1678448",
        "name": "sandybridge from WebRender in 83 on macOS"
      },
      "devices": [
        "0x0102",
        "0x0106",
        "0x010a",
        "0x0112",
        "0x0116",
        "0x0122",
        "0x0126"
      ],
      "enabled": true,
      "feature": "WEBRENDER",
      "hardware": "",
      "versionRange": {
        "maxVersion": "83.*",
        "minVersion": "83.0"
      },
      "driverVersion": "",
      "featureStatus": "BLOCKED_DEVICE",
      "driverVersionMax": "",
      "id": "29815508-ba95-474b-ab55-e1669ece31bb",
      "last_modified": 1605895309594
    },
    {
      "os": "Darwin 18",
      "schema": 1605887703589,
      "vendor": "0x8086",
      "details": {
        "bug": "https://bugzilla.mozilla.org/show_bug.cgi?id=1678448",
        "name": "sandybridge from WebRender in 83 on macOS"
      },
      "devices": [
        "0x0102",
        "0x0106",
        "0x010a",
        "0x0112",
        "0x0116",
        "0x0122",
        "0x0126"
      ],
      "enabled": true,
      "feature": "WEBRENDER",
      "hardware": "",
      "versionRange": {
        "maxVersion": "83.*",
        "minVersion": "83.0"
      },
      "driverVersion": "",
      "featureStatus": "BLOCKED_DEVICE",
      "driverVersionMax": "",
      "driverVersionComparator": "",
      "id": "84ab1546-f779-42cb-8692-4426d38a06ec",
      "last_modified": 1605895309589
    },
    {
      "os": "Darwin 17",
      "schema": 1605887758025,
      "vendor": "0x8086",
      "details": {
        "bug": "https://bugzilla.mozilla.org/show_bug.cgi?id=1678448",
        "name": "sandybridge from WebRender in 83 on macOS"
      },
      "devices": [
        "0x0102",
        "0x0106",
        "0x010a",
        "0x0112",
        "0x0116",
        "0x0122",
        "0x0126"
      ],
      "enabled": true,
      "feature": "WEBRENDER",
      "hardware": "",
      "versionRange": {
        "maxVersion": "83.*",
        "minVersion": "83.0"
      },
      "driverVersion": "",
      "featureStatus": "BLOCKED_DEVICE",
      "driverVersionMax": "",
      "driverVersionComparator": "",
      "id": "bec686f1-428d-4979-931a-211974cd7f33",
      "last_modified": 1605895309584
    },
    {
      "os": "Darwin 16",
      "schema": 1605887815692,
      "vendor": "0x8086",
      "details": {
        "bug": "https://bugzilla.mozilla.org/show_bug.cgi?id=1678448",
        "name": "sandybridge from WebRender in 83 on macOS"
      },
      "devices": [
        "0x0102",
        "0x0106",
        "0x010a",
        "0x0112",
        "0x0116",
        "0x0122",
        "0x0126"
      ],
      "enabled": true,
      "feature": "WEBRENDER",
      "hardware": "",
      "versionRange": {
        "maxVersion": "83.*",
        "minVersion": "83.0"
      },
      "driverVersion": "",
      "featureStatus": "BLOCKED_DEVICE",
      "driverVersionMax": "",
      "driverVersionComparator": "",
      "id": "fb5e482f-a0b2-434f-a667-d01b1d7fdf77",
      "last_modified": 1605895309578
    },
    {
      "os": "Darwin 11",
      "schema": 1480349134676,
      "vendor": "0x10de",
      "blockID": "g200",
      "details": {
        "bug": "https://bugzilla.mozilla.org/show_bug.cgi?id=809550",
        "who": "All Firefox users.",
        "why": "Security problems.",
        "name": "Mac OS X WebGL anti-aliasing",
        "created": "2012-11-12T10:35:32Z"
      },
      "devices": [],
      "enabled": true,
      "feature": "WEBGL_MSAA",
      "featureStatus": "BLOCKED_DEVICE",
      "id": "ae36a32e-5f4f-2f98-804f-22b0de5e7bfa",
      "last_modified": 1480349135384
    },
    {
      "os": "WINNT 6.0",
      "schema": 1480349134676,
      "vendor": "0x8086",
      "blockID": "g1217",
      "details": {
        "bug": "https://bugzilla.mozilla.org/show_bug.cgi?id=1266220",
        "who": ".",
        "why": ".",
        "name": "10.18.10.3947 winnt 6.0",
        "created": "2016-05-23T15:43:58Z"
      },
      "devices": [],
      "enabled": true,
      "feature": "HARDWARE_VIDEO_DECODING",
      "driverVersion": "10.18.10.3947",
      "featureStatus": "BLOCKED_DRIVER_VERSION",
      "driverVersionComparator": "EQUAL",
      "id": "a3fe9700-b9e6-1c31-f94b-030f72f4aa07",
      "last_modified": 1480349135360
    },
    {
      "os": "All",
      "schema": 1480349134676,
      "vendor": "0x8086",
      "blockID": "g1124",
      "details": {
        "bug": "https://bugzilla.mozilla.org/show_bug.cgi?id=1170143",
        "who": ".",
        "why": ".",
        "name": "Intel Driver 8.15.10.2086",
        "created": "2016-02-22T23:40:14Z"
      },
      "devices": [
        "0x2a42",
        "0x2e22",
        "0x2e12",
        "0x2e32",
        "0x0046"
      ],
      "enabled": true,
      "driverVersion": "8.15.10.2086",
      "featureStatus": "BLOCKED_DRIVER_VERSION",
      "driverVersionComparator": "EQUAL",
      "id": "851c8fcb-5763-bf89-813d-0f98cdd6f8c1",
      "last_modified": 1480349135337
    },
    {
      "os": "Darwin 12",
      "schema": 1480349134676,
      "vendor": "0x10de",
      "blockID": "g202",
      "details": {
        "bug": "https://bugzilla.mozilla.org/show_bug.cgi?id=809550",
        "who": "All Firefox users.",
        "why": "Security problems.",
        "name": "Mac OS X WebGL anti-aliasing",
        "created": "2012-11-12T10:37:07Z"
      },
      "devices": [],
      "enabled": true,
      "feature": "WEBGL_MSAA",
      "featureStatus": "BLOCKED_DEVICE",
      "id": "a825cb5d-36f6-54b0-31b3-6668aae49cdd",
      "last_modified": 1480349135314
    },
    {
      "os": "Darwin 12",
      "schema": 1480349134676,
      "vendor": "0x8086",
      "blockID": "g208",
      "details": {
        "bug": "https://bugzilla.mozilla.org/show_bug.cgi?id=809550",
        "who": "All Firefox users.",
        "why": "Security problems",
        "name": "Mac OS X WebGL anti-aliasing",
        "created": "2012-11-12T10:42:34Z"
      },
      "devices": [],
      "enabled": true,
      "feature": "WEBGL_MSAA",
      "featureStatus": "BLOCKED_DEVICE",
      "id": "a8e8aa1a-8e70-af51-065d-81ed31d23221",
      "last_modified": 1480349135291
    },
    {
      "os": "All",
      "schema": 1480349134676,
      "vendor": "0x8086",
      "blockID": "g1073",
      "details": {
        "bug": "https://bugzilla.mozilla.org/show_bug.cgi?id=1207993",
        "who": ".",
        "why": ".",
        "name": "Crash in igd10umd32.dll@0x18f35",
        "created": "2015-12-21T16:01:46Z"
      },
      "devices": [
        "0x2a42",
        "0x2e22",
        "0x2e12",
        "0x2e32",
        "0x0046"
      ],
      "enabled": true,
      "driverVersion": "8.15.10.1994",
      "featureStatus": "BLOCKED_DRIVER_VERSION",
      "driverVersionComparator": "EQUAL",
      "id": "13f75dff-c65f-eab1-4be5-864a79503ad5",
      "last_modified": 1480349135267
    },
    {
      "os": "WINNT 10.0",
      "schema": 1480349134676,
      "vendor": "0x8086",
      "blockID": "g1221",
      "details": {
        "bug": "https://bugzilla.mozilla.org/show_bug.cgi?id=1266220",
        "who": ".",
        "why": ".",
        "name": "10.18.10.3947 winnt 10.0",
        "created": "2016-05-23T15:47:17Z"
      },
      "devices": [],
      "enabled": true,
      "feature": "HARDWARE_VIDEO_DECODING",
      "driverVersion": "10.18.10.3947",
      "featureStatus": "BLOCKED_DRIVER_VERSION",
      "driverVersionComparator": "EQUAL",
      "id": "65ad7851-4af6-2a10-1d47-72943e63dcf0",
      "last_modified": 1480349135245
    },
    {
      "os": "WINNT 5.2",
      "schema": 1480349134676,
      "vendor": "0x8086",
      "blockID": "g1216",
      "details": {
        "bug": "https://bugzilla.mozilla.org/show_bug.cgi?id=1266220",
        "who": ".",
        "why": ".",
        "name": "10.18.10.3947 winnt 5.2",
        "created": "2016-05-23T15:32:22Z"
      },
      "devices": [],
      "enabled": true,
      "feature": "HARDWARE_VIDEO_DECODING",
      "driverVersion": "10.18.10.3947",
      "featureStatus": "BLOCKED_DRIVER_VERSION",
      "driverVersionComparator": "EQUAL",
      "id": "18968a19-7317-cc56-f9fc-f568f40abca4",
      "last_modified": 1480349135215
    },
    {
      "os": "WINNT 5.1",
      "schema": 1480349134676,
      "vendor": "0x8086",
      "blockID": "g1215",
      "details": {
        "bug": "https://bugzilla.mozilla.org/show_bug.cgi?id=1266220",
        "who": ".",
        "why": ".",
        "name": "10.18.10.3947 winnt 5.1",
        "created": "2016-05-23T15:31:32Z"
      },
      "devices": [],
      "enabled": true,
      "feature": "HARDWARE_VIDEO_DECODING",
      "driverVersion": "10.18.10.3947",
      "featureStatus": "BLOCKED_DRIVER_VERSION",
      "driverVersionComparator": "EQUAL",
      "id": "5c141970-5076-0af4-152f-efb3642a7b14",
      "last_modified": 1480349135171
    },
    {
      "os": "Darwin 12",
      "schema": 1480349134676,
      "vendor": "0x1002",
      "blockID": "g234",
      "details": {
        "bug": "https://bugzilla.mozilla.org/show_bug.cgi?id=815437",
        "who": "All Firefox users.",
        "why": "Security problems.",
        "name": "Mac OS X WebGL anti-aliasing (AMD)",
        "created": "2012-11-30T12:50:57Z"
      },
      "devices": [],
      "enabled": true,
      "feature": "WEBGL_MSAA",
      "featureStatus": "BLOCKED_DEVICE",
      "id": "3310f8b8-1789-1b13-9326-5531943514ae",
      "last_modified": 1480349135145
    },
    {
      "os": "Darwin 10",
      "schema": 1480349134676,
      "vendor": "0x1002",
      "blockID": "g230",
      "details": {
        "bug": "https://bugzilla.mozilla.org/show_bug.cgi?id=815437",
        "who": "All Firefox users.",
        "why": "Security problems.",
        "name": "Mac OS X WebGL anti-aliasing (AMD)",
        "created": "2012-11-30T12:48:55Z"
      },
      "devices": [],
      "enabled": true,
      "feature": "WEBGL_MSAA",
      "featureStatus": "BLOCKED_DEVICE",
      "id": "4769433c-51e9-a0f9-eef5-45829ac54243",
      "last_modified": 1480349135120
    },
    {
      "os": "WINNT 6.1",
      "schema": 1480349134676,
      "vendor": "0x8086",
      "blockID": "g1218",
      "details": {
        "bug": "https://bugzilla.mozilla.org/show_bug.cgi?id=1266220",
        "who": ".",
        "why": ".",
        "name": "10.18.10.3947 winnt 6.1",
        "created": "2016-05-23T15:44:43Z"
      },
      "devices": [],
      "enabled": true,
      "feature": "HARDWARE_VIDEO_DECODING",
      "driverVersion": "10.18.10.3947",
      "featureStatus": "BLOCKED_DRIVER_VERSION",
      "driverVersionComparator": "EQUAL",
      "id": "7a3ea538-8519-2845-53bf-6a4be0ff9e6b",
      "last_modified": 1480349135096
    },
    {
      "os": "Darwin 10",
      "schema": 1480349134676,
      "vendor": "0x10de",
      "blockID": "g198",
      "details": {
        "bug": "https://bugzilla.mozilla.org/show_bug.cgi?id=809550",
        "who": "All Firefox users.",
        "why": "Security problems.",
        "name": "Mac OS X WebGL anti-aliasing",
        "created": "2012-11-12T10:34:32Z"
      },
      "devices": [],
      "enabled": true,
      "feature": "WEBGL_MSAA",
      "featureStatus": "BLOCKED_DEVICE",
      "id": "c9551a39-62fb-f652-8032-cbe9d2ce419c",
      "last_modified": 1480349135072
    },
    {
      "os": "WINNT 5.1",
      "schema": 1480349134676,
      "vendor": "0x8086",
      "blockID": "g511",
      "details": {
        "bug": "https://bugzilla.mozilla.org/show_bug.cgi?id=951422",
        "who": "All Firefox users.",
        "why": "Stability.",
        "name": "Intel driver < 6.14.10.5216 for DIRECT3D_9_LAYERS on XP",
        "created": "2013-12-18T14:29:36Z"
      },
      "devices": [],
      "enabled": true,
      "feature": "DIRECT3D_9_LAYERS",
      "driverVersion": "6.14.10.5218",
      "featureStatus": "BLOCKED_DRIVER_VERSION",
      "driverVersionComparator": "LESS_THAN",
      "id": "37ffcc44-0d03-681e-69bf-89c38111fcdd",
      "last_modified": 1480349135048
    },
    {
      "os": "WINNT 6.1",
      "schema": 1480343737148,
      "vendor": "0x10de",
      "blockID": "g36",
      "details": {
        "bug": "",
        "who": "",
        "why": "",
        "name": "<BlocklistGfx: None: WINNT 6.1 : 0x10de : 0x0a6c>",
        "created": "2011-03-01T12:13:42Z"
      },
      "devices": [
        "0x0a6c"
      ],
      "enabled": true,
      "feature": "DIRECT3D_9_LAYERS",
      "driverVersion": "8.17.12.5896",
      "featureStatus": "BLOCKED_DRIVER_VERSION",
      "driverVersionComparator": "LESS_THAN_OR_EQUAL",
      "id": "6ac4f440-9661-ee18-248f-f3b7b6eb8deb",
      "last_modified": 1480349134662
    },
    {
      "os": "All",
      "schema": 1480343737148,
      "vendor": "0x8086",
      "blockID": "g1069",
      "details": {
        "bug": "https://bugzilla.mozilla.org/show_bug.cgi?id=1207993",
        "who": ".",
        "why": ".",
        "name": "Crash in igd10umd32.dll@0x18f35",
        "created": "2015-12-21T15:58:51Z"
      },
      "devices": [
        "0x2a42",
        "0x2e22",
        "0x2e12",
        "0x2e32",
        "0x0046"
      ],
      "enabled": true,
      "driverVersion": "8.15.10.1855",
      "featureStatus": "BLOCKED_DRIVER_VERSION",
      "driverVersionComparator": "EQUAL",
      "id": "9928c898-4941-555d-e502-54a90e9e5371",
      "last_modified": 1480349134638
    },
    {
      "os": "WINNT 10.0",
      "schema": 1480343737148,
      "vendor": "0x1002",
      "blockID": "g974",
      "details": {
        "bug": "https://bugzilla.mozilla.org/show_bug.cgi?id=1189266",
        "who": "All users who have these cards on Windows 10.",
        "why": "Crashes on Windows 10.",
        "name": "ATI cards on Windows 10",
        "created": "2015-08-11T10:30:37Z"
      },
      "devices": [
        "0x6920",
        "0x6921",
        "0x6928",
        "0x6929",
        "0x692b",
        "0x692f",
        "0x6930",
        "0x6938",
        "0x6939",
        "0x6900",
        "0x6901",
        "0x6902",
        "0x6903",
        "0x6907",
        "0x7300",
        "0x9870",
        "0x9874",
        "0x9875",
        "0x9876",
        "0x9877"
      ],
      "enabled": true,
      "feature": "DIRECT2D",
      "driverVersion": "15.201.1151.0",
      "featureStatus": "BLOCKED_DRIVER_VERSION",
      "driverVersionComparator": "LESS_THAN",
      "id": "ec9cf554-49de-e5ea-bbdc-54f84d290605",
      "last_modified": 1480349134615
    },
    {
      "os": "WINNT 6.1",
      "schema": 1480343737148,
      "vendor": "0x1002",
      "blockID": "g280",
      "details": {
        "bug": "https://bugzilla.mozilla.org/show_bug.cgi?id=840161",
        "who": "All Firefox user who use this driver.",
        "why": "Crashes.",
        "name": "AMD Radeon HD 6290/6300/6310/6320 for Direct3D 9",
        "created": "2013-02-13T14:52:05Z"
      },
      "devices": [
        "0x9802",
        "0x9803",
        "0x9803",
        "0x9804",
        "0x9805",
        "0x9806",
        "0x9807"
      ],
      "enabled": true,
      "feature": "DIRECT3D_9_LAYERS",
      "featureStatus": "BLOCKED_DEVICE",
      "id": "9b7a25d9-075e-e5e9-678e-af1292db7463",
      "last_modified": 1480349134582
    },
    {
      "os": "All",
      "schema": 1480343737148,
      "vendor": "0x8086",
      "blockID": "g984",
      "details": {
        "bug": "https://bugzilla.mozilla.org/show_bug.cgi?id=1193802",
        "who": "All users using these driver versions.",
        "why": "Major graphics artifacts.",
        "name": "Intel graphics block",
        "created": "2015-08-14T16:21:45Z"
      },
      "devices": [],
      "enabled": true,
      "feature": "DIRECT2D",
      "driverVersion": "8.15.10.2413",
      "featureStatus": "BLOCKED_DRIVER_VERSION",
      "driverVersionComparator": "LESS_THAN_OR_EQUAL",
      "id": "f1830d7b-c807-afda-1b97-f41474157165",
      "last_modified": 1480349134550
    },
    {
      "os": "All",
      "schema": 1480343737148,
      "vendor": "0x8086",
      "blockID": "g1070",
      "details": {
        "bug": "https://bugzilla.mozilla.org/show_bug.cgi?id=1207993",
        "who": ".",
        "why": ".",
        "name": "Crash in igd10umd32.dll@0x18f35",
        "created": "2015-12-21T15:59:29Z"
      },
      "devices": [
        "0x2a42",
        "0x2e22",
        "0x2e12",
        "0x2e32",
        "0x0046"
      ],
      "enabled": true,
      "driverVersion": "8.15.10.1872",
      "featureStatus": "BLOCKED_DRIVER_VERSION",
      "driverVersionComparator": "EQUAL",
      "id": "0f7b2114-976c-db1c-2d9a-02d47d1968e1",
      "last_modified": 1480349134528
    },
    {
      "os": "All",
      "schema": 1480343737148,
      "vendor": "0x1022",
      "blockID": "g148",
      "details": {
        "bug": "https://bugzilla.mozilla.org/show_bug.cgi?id=793869",
        "who": "All Firefox users who have these drivers installed.",
        "why": "Some features in these drivers are causing frequent crashes in Firefox.",
        "name": "ATI/AMD driver 8.982.0.0 (Direct3D)",
        "created": "2012-09-25T14:31:35Z"
      },
      "devices": [],
      "enabled": true,
      "feature": "DIRECT3D_9_LAYERS",
      "driverVersion": "8.982.0.0",
      "featureStatus": "BLOCKED_DRIVER_VERSION",
      "driverVersionComparator": "EQUAL",
      "id": "85925d60-d04e-2cbd-cdee-de70ea6be4f4",
      "last_modified": 1480349134505
    },
    {
      "os": "WINNT 6.2",
      "schema": 1480343737148,
      "vendor": "0x1002",
      "blockID": "g192",
      "details": {
        "bug": "https://bugzilla.mozilla.org/show_bug.cgi?id=806991",
        "who": "All Firefox users.",
        "why": "Crashes.",
        "name": "AMD DIRECT2D on Windows 8, [0x1002]",
        "created": "2012-11-02T16:33:13Z"
      },
      "devices": [],
      "enabled": true,
      "feature": "DIRECT2D",
      "driverVersion": "9.10.8.0",
      "featureStatus": "BLOCKED_DRIVER_VERSION",
      "driverVersionComparator": "LESS_THAN_OR_EQUAL",
      "id": "5e34680b-5279-4ffc-7382-b1bc661b3094",
      "last_modified": 1480349134483
    },
    {
      "os": "WINNT 6.1",
      "schema": 1480343737148,
      "vendor": "0x10de",
      "blockID": "g35",
      "details": {
        "bug": "",
        "who": "",
        "why": "",
        "name": "<BlocklistGfx: None: WINNT 6.1 : 0x10de : 0x0a6c>",
        "created": "2011-03-01T12:13:40Z"
      },
      "devices": [
        "0x0a6c"
      ],
      "enabled": true,
      "feature": "DIRECT2D",
      "driverVersion": "8.17.12.5896",
      "featureStatus": "BLOCKED_DRIVER_VERSION",
      "driverVersionComparator": "LESS_THAN_OR_EQUAL",
      "id": "00a6b9d2-285f-83f0-0a1f-ef0205a60067",
      "last_modified": 1480349134459
    },
    {
      "os": "All",
      "schema": 1480343737148,
      "vendor": "0x8086",
      "blockID": "g1071",
      "details": {
        "bug": "https://bugzilla.mozilla.org/show_bug.cgi?id=1207993",
        "who": ".",
        "why": ".",
        "name": "Crash in igd10umd32.dll@0x18f35",
        "created": "2015-12-21T16:00:05Z"
      },
      "devices": [
        "0x2a42",
        "0x2e22",
        "0x2e12",
        "0x2e32",
        "0x0046"
      ],
      "enabled": true,
      "driverVersion": "8.15.10.1883",
      "featureStatus": "BLOCKED_DRIVER_VERSION",
      "driverVersionComparator": "EQUAL",
      "id": "d4297784-dbac-906c-16b7-1a8792e868de",
      "last_modified": 1480349134436
    },
    {
      "os": "All",
      "schema": 1480343737148,
      "vendor": "0x1002",
      "blockID": "g150",
      "details": {
        "bug": "https://bugzilla.mozilla.org/show_bug.cgi?id=793869",
        "who": "All Firefox users who have these drivers installed.",
        "why": "Some features in these drivers are causing frequent crashes in Firefox.",
        "name": "ATI/AMD driver 8.982.0.0 (Direct3D)",
        "created": "2012-09-25T14:33:17Z"
      },
      "devices": [],
      "enabled": true,
      "feature": "DIRECT3D_9_LAYERS",
      "driverVersion": "8.982.0.0",
      "featureStatus": "BLOCKED_DRIVER_VERSION",
      "driverVersionComparator": "EQUAL",
      "id": "6a3c05bb-f971-d3d4-2a02-184e6970ba87",
      "last_modified": 1480349134413
    },
    {
      "os": "All",
      "schema": 1480343737148,
      "vendor": "0x1002",
      "blockID": "g144",
      "details": {
        "bug": "https://bugzilla.mozilla.org/show_bug.cgi?id=792480",
        "who": "All Firefox users who have these drivers installed.",
        "why": "Some features in these drivers are causing frequent crashes in Firefox.",
        "name": "ATI/AMD driver 8.982.0.0",
        "created": "2012-09-24T08:23:25Z"
      },
      "devices": [],
      "enabled": true,
      "feature": "DIRECT2D",
      "driverVersion": "8.982.0.0",
      "featureStatus": "BLOCKED_DRIVER_VERSION",
      "driverVersionComparator": "EQUAL",
      "id": "35e25a7c-d77d-6b43-fa5e-39b7e9c8a481",
      "last_modified": 1480349134391
    },
    {
      "os": "WINNT 5.1",
      "schema": 1480343737148,
      "vendor": "0x8086",
      "blockID": "g1251",
      "details": {
        "bug": "https://bugzilla.mozilla.org/show_bug.cgi?id=1283601",
        "who": ".",
        "why": ".",
        "name": "Intel driver < 6.14.10.5216 for DIRECT3D_9_LAYERS on XP",
        "created": "2016-07-22T12:30:30Z"
      },
      "devices": [],
      "enabled": true,
      "feature": "WEBGL_ANGLE",
      "versionRange": {
        "maxVersion": "49.9"
      },
      "driverVersion": "6.14.10.5218",
      "featureStatus": "BLOCKED_DRIVER_VERSION",
      "driverVersionComparator": "LESS_THAN",
      "id": "ea27a4d2-ed88-0190-db12-473820b340b2",
      "last_modified": 1480349134369
    },
    {
      "os": "Darwin 11",
      "schema": 1480343737148,
      "vendor": "0x8086",
      "blockID": "g206",
      "details": {
        "bug": "https://bugzilla.mozilla.org/show_bug.cgi?id=809550",
        "who": "All Firefox users.",
        "why": "Security problems",
        "name": "Mac OS X WebGL anti-aliasing",
        "created": "2012-11-12T10:39:32Z"
      },
      "devices": [],
      "enabled": true,
      "feature": "WEBGL_MSAA",
      "featureStatus": "BLOCKED_DEVICE",
      "id": "91cc2cec-11dd-0f77-ffad-f57e69b3f441",
      "last_modified": 1480349134345
    },
    {
      "os": "All",
      "schema": 1480343737148,
      "vendor": "0x8086",
      "blockID": "g1068",
      "details": {
        "bug": "https://bugzilla.mozilla.org/show_bug.cgi?id=1207993",
        "who": ".",
        "why": ".",
        "name": "Crash in igd10umd32.dll@0x18f35",
        "created": "2015-12-21T15:58:01Z"
      },
      "devices": [
        "0x2a42",
        "0x2e22",
        "0x2e12",
        "0x2e32",
        "0x0046"
      ],
      "enabled": true,
      "driverVersion": "8.15.10.1851",
      "featureStatus": "BLOCKED_DRIVER_VERSION",
      "driverVersionComparator": "EQUAL",
      "id": "b7452893-25cc-497a-626c-aacee78683c6",
      "last_modified": 1480349134323
    },
    {
      "os": "WINNT 6.2",
      "schema": 1480343737148,
      "vendor": "0x8086",
      "blockID": "g1219",
      "details": {
        "bug": "https://bugzilla.mozilla.org/show_bug.cgi?id=1266220",
        "who": ".",
        "why": ".",
        "name": "10.18.10.3947 winnt 6.2",
        "created": "2016-05-23T15:45:21Z"
      },
      "devices": [],
      "enabled": true,
      "feature": "HARDWARE_VIDEO_DECODING",
      "driverVersion": "10.18.10.3947",
      "featureStatus": "BLOCKED_DRIVER_VERSION",
      "driverVersionComparator": "EQUAL",
      "id": "73e4e12d-f27a-1113-b0e9-c05cb4dd78d2",
      "last_modified": 1480349134301
    },
    {
      "os": "WINNT 5.1",
      "schema": 1480343737148,
      "vendor": "0x10de",
      "blockID": "g37",
      "details": {
        "bug": "",
        "who": "",
        "why": "",
        "name": "<BlocklistGfx: None: WINNT 5.1 : 0x10de : >",
        "created": "2011-03-14T14:11:51Z"
      },
      "devices": [],
      "enabled": true,
      "feature": "DIRECT3D_9_LAYERS",
      "driverVersion": "7.0.0.0",
      "featureStatus": "BLOCKED_DRIVER_VERSION",
      "driverVersionComparator": "GREATER_THAN_OR_EQUAL",
      "id": "fb507393-460e-685e-91de-1ce3b18ddbc0",
      "last_modified": 1480349134278
    },
    {
      "os": "All",
      "schema": 1480343737148,
      "vendor": "0x1022",
      "blockID": "g146",
      "details": {
        "bug": "https://bugzilla.mozilla.org/show_bug.cgi?id=792480",
        "who": "All Firefox users who have these drivers installed.",
        "why": "Some features in these drivers are causing frequent crashes in Firefox.",
        "name": "ATI/AMD driver 8.982.0.0",
        "created": "2012-09-24T08:23:33Z"
      },
      "devices": [],
      "enabled": true,
      "feature": "DIRECT2D",
      "driverVersion": "8.982.0.0",
      "featureStatus": "BLOCKED_DRIVER_VERSION",
      "driverVersionComparator": "EQUAL",
      "id": "e6984930-7969-3cbc-fbaa-0f350afe6f14",
      "last_modified": 1480349134255
    },
    {
      "os": "WINNT 8.1",
      "schema": 1480343737148,
      "vendor": "0x1002",
      "blockID": "g992",
      "details": {
        "bug": "https://bugzilla.mozilla.org/show_bug.cgi?id=1189266",
        "who": "Users who have these cards installed.",
        "why": "Crashing.",
        "name": "ATI cards on Windows 10",
        "created": "2015-08-20T09:56:09Z"
      },
      "devices": [
        "0x6920",
        "0x6921",
        "0x6928",
        "0x6929",
        "0x692b",
        "0x692f",
        "0x6930",
        "0x6938",
        "0x6939",
        "0x6900",
        "0x6901",
        "0x6902",
        "0x6903",
        "0x6907",
        "0x7300",
        "0x9870",
        "0x9874",
        "0x9875",
        "0x9876",
        "0x9877"
      ],
      "enabled": true,
      "feature": "DIRECT2D",
      "driverVersion": "15.201.1151.0",
      "featureStatus": "BLOCKED_DRIVER_VERSION",
      "driverVersionComparator": "LESS_THAN",
      "id": "77b27d80-1ebe-04de-2db9-bb197acbac32",
      "last_modified": 1480349134232
    },
    {
      "os": "Darwin 11",
      "schema": 1480343737148,
      "vendor": "0x1002",
      "blockID": "g232",
      "details": {
        "bug": "https://bugzilla.mozilla.org/show_bug.cgi?id=809550",
        "who": "All Firefox users.",
        "why": "Security problems.",
        "name": "Mac OS X WebGL anti-aliasing (AMD)",
        "created": "2012-11-30T12:49:56Z"
      },
      "devices": [],
      "enabled": true,
      "feature": "WEBGL_MSAA",
      "featureStatus": "BLOCKED_DEVICE",
      "id": "8f8e9025-a9ec-5f1e-ae9f-aee28176bdf7",
      "last_modified": 1480349134210
    },
    {
      "os": "WINNT 6.3",
      "schema": 1480343737148,
      "vendor": "0x8086",
      "blockID": "g1220",
      "details": {
        "bug": "https://bugzilla.mozilla.org/show_bug.cgi?id=1266220",
        "who": ".",
        "why": ".",
        "name": "10.18.10.3947 winnt 6.3",
        "created": "2016-05-23T15:46:34Z"
      },
      "devices": [],
      "enabled": true,
      "feature": "HARDWARE_VIDEO_DECODING",
      "driverVersion": "10.18.10.3947",
      "featureStatus": "BLOCKED_DRIVER_VERSION",
      "driverVersionComparator": "EQUAL",
      "id": "1f91fdd6-8b89-d948-d05a-86491c705ce2",
      "last_modified": 1480349134187
    },
    {
      "os": "Darwin 10",
      "schema": 1480343737148,
      "vendor": "0x8086",
      "blockID": "g204",
      "details": {
        "bug": "https://bugzilla.mozilla.org/show_bug.cgi?id=809550",
        "who": "All Firefox users.",
        "why": "Security problems.",
        "name": "Mac OS X WebGL anti-aliasing",
        "created": "2012-11-12T10:38:32Z"
      },
      "devices": [],
      "enabled": true,
      "feature": "WEBGL_MSAA",
      "featureStatus": "BLOCKED_DEVICE",
      "id": "33866148-1d41-2d4c-27b8-5f147467686b",
      "last_modified": 1480349134160
    },
    {
      "os": "WINNT 6.1",
      "schema": 1480343737148,
      "vendor": "0x1002",
      "blockID": "g278",
      "details": {
        "bug": "https://bugzilla.mozilla.org/show_bug.cgi?id=840161",
        "who": "All Firefox users using these drivers.",
        "why": "Crashes",
        "name": "AMD Radeon HD 6290/6300/6310/6320 for Direct2D",
        "created": "2013-02-13T14:50:33Z"
      },
      "devices": [
        "0x9802",
        "0x9803",
        "0x9803",
        "0x9804",
        "0x9805",
        "0x9806",
        "0x9807"
      ],
      "enabled": true,
      "feature": "DIRECT2D",
      "featureStatus": "BLOCKED_DEVICE",
      "id": "bccdbab1-c335-6f2e-6d0a-d563ccb2f1f4",
      "last_modified": 1480349134138
    },
    {
      "os": "All",
      "schema": 1480343737148,
      "vendor": "0x8086",
      "blockID": "g1072",
      "details": {
        "bug": "https://bugzilla.mozilla.org/show_bug.cgi?id=1207993",
        "who": ".",
        "why": ".",
        "name": "Crash in igd10umd32.dll@0x18f35",
        "created": "2015-12-21T16:00:50Z"
      },
      "devices": [
        "0x2a42",
        "0x2e22",
        "0x2e12",
        "0x2e32",
        "0x0046"
      ],
      "enabled": true,
      "driverVersion": "8.15.10.1892",
      "featureStatus": "BLOCKED_DRIVER_VERSION",
      "driverVersionComparator": "EQUAL",
      "id": "d780a857-b80d-0049-981e-1a8d3ebe485e",
      "last_modified": 1480349134115
    },
    {
      "os": "WINNT 6.2",
      "schema": 1480343737148,
      "vendor": "0x1022",
      "blockID": "g194",
      "details": {
        "bug": "https://bugzilla.mozilla.org/show_bug.cgi?id=806991",
        "who": "All Firefox users.",
        "why": "Crashes.",
        "name": "AMD DIRECT2D on Windows 8, [0x1022]",
        "created": "2012-11-02T16:35:37Z"
      },
      "devices": [],
      "enabled": true,
      "feature": "DIRECT2D",
      "driverVersion": "9.10.8.0",
      "featureStatus": "BLOCKED_DRIVER_VERSION",
      "driverVersionComparator": "LESS_THAN_OR_EQUAL",
      "id": "0afc5fe9-1f81-7fde-2424-0cb4d933c173",
      "last_modified": 1480349134090
    }
  ]
}
